<?xml version="1.0" encoding="UTF-8" standalone="no"?>
<!-- Created with Inkscape (http://www.inkscape.org/) -->

<svg
   width="121.951mm"
   height="134.821mm"
   viewBox="0 0 121.951 134.821"
   version="1.1"
   id="svg5"
   inkscape:version="1.1.2 (b8e25be833, 2022-02-05)"
   sodipodi:docname="font_home2.svg"
   xmlns:inkscape="http://www.inkscape.org/namespaces/inkscape"
   xmlns:sodipodi="http://sodipodi.sourceforge.net/DTD/sodipodi-0.dtd"
   xmlns="http://www.w3.org/2000/svg"
   xmlns:svg="http://www.w3.org/2000/svg">
  <sodipodi:namedview
     id="namedview7"
     pagecolor="#ffffff"
     bordercolor="#666666"
     borderopacity="1.0"
     inkscape:pageshadow="2"
     inkscape:pageopacity="0.0"
     inkscape:pagecheckerboard="true"
     inkscape:document-units="mm"
     showgrid="false"
     inkscape:zoom="1.0831515"
     inkscape:cx="146.33225"
     inkscape:cy="276.50795"
     inkscape:window-width="1920"
     inkscape:window-height="1001"
     inkscape:window-x="-9"
     inkscape:window-y="-9"
     inkscape:window-maximized="1"
     inkscape:current-layer="layer1"
     inkscape:snap-others="false"
     inkscape:snap-page="true"
     inkscape:snap-global="true"
     inkscape:snap-bbox="true"
     inkscape:bbox-nodes="true"
     inkscape:bbox-paths="true"
     inkscape:snap-bbox-midpoints="false"
     inkscape:snap-bbox-edge-midpoints="true"
     height="134.821mm" />
  <defs
     id="defs2">
    <rect
       x="44.456226"
       y="323.6969"
       width="691.84998"
       height="329.25391"
       id="rect2674" />
  </defs>
  <g
     inkscape:label="Layer 1"
     inkscape:groupmode="layer"
     id="layer1">
    <g
       aria-label="ho
me"
       transform="matrix(2.0685576,0,0,2.0685576,-93.285807,-670.07296)"
       id="text2672"
       style="font-size:40px;line-height:0.85;letter-spacing:7.67443px;word-spacing:0px;white-space:pre;shape-inside:url(#rect2674);fill:#ffffff">
      <path
         d="m 65.817031,333.89227 q -0.52,0.04 -0.88,-0.28 -0.32,-0.32 -0.32,-1.2 0,-0.48 0.12,-1.16 0.12,-0.68 0.44,-1.6 0.32,-0.96 0.48,-1.88 0.16,-0.96 0.16,-1.56 0,-0.72 -0.2,-0.72 -0.2,0 -0.68,0.88 -0.48,0.84 -1.24,3 -0.28,0.84 -0.8,2.28 -0.48,1.4 -1.04,3.16 -0.52,1.72 -1.08,3.64 -0.56,1.92 -1,3.8 -0.44,1.84 -0.72,3.52 -0.28,1.68 -0.28,2.88 0,1.12 0.24,1.76 0.28,0.64 0.92,0.64 1.04,0 1.4,-0.68 0.4,-0.68 0.4,-1.68 0,-1.04 -0.28,-2.2 -0.28,-1.16 -0.48,-1.84 -0.16,-0.6 -0.32,-1.36 -0.12,-0.8 -0.12,-1.6 0,-1.16 0.44,-1.96 0.48,-0.84 1.76,-0.84 0.84,0 1.56,0.44 0.72,0.44 1.24,1.16 0.52,0.68 0.8,1.52 0.32,0.8 0.32,1.6 0,1.36 -0.8,1.88 -0.4,0.24 -0.88,0.24 -0.8,0 -1.32,-0.72 -0.52,-0.72 -0.52,-1.88 0,-1.2 -0.36,-2.12 -0.32,-0.96 -0.8,-0.96 -0.44,0 -0.64,0.52 -0.16,0.52 -0.16,0.84 0,0.68 0.28,1.48 0.32,0.8 0.68,1.68 0.36,0.84 0.6,1.72 0.28,0.88 0.2,1.72 -0.2,2.12 -0.88,3.12 -0.64,0.96 -2.28,0.96 -0.6,0 -1.2,-0.32 -0.6,-0.36 -1.08,-1 -0.44,-0.68 -0.76,-1.68 -0.28,-1 -0.28,-2.32 0,-1.12 0.24,-2.44 0.24,-1.32 0.8,-2.84 0.36,-0.84 0.68,-1.64 0.24,-0.68 0.44,-1.48 0.2,-0.8 0.2,-1.44 0,-0.56 -0.24,-0.92 -0.24,-0.4 -0.8,-0.4 -0.24,0 -0.68,0.12 -1.36,0.4 -2.32,1.4 -0.92,0.96 -1.56,2.32 -0.64,1.36 -1,3.08 -0.32,1.72 -0.48,3.64 -0.16,1.92 -0.68,3.08 -0.48,1.16 -1.16,1.8 -0.64,0.64 -1.44,0.84 -0.76,0.2 -1.44,0.2 -0.16,0 -0.48,-0.12 -0.32,-0.16 -0.64,-0.44 -0.32,-0.32 -0.56,-0.8 -0.24,-0.48 -0.24,-1.2 0,-0.92 0.56,-2.28 0.56,-1.36 2.08,-3.24 1.68,-2.12 3.16,-4.4 1.52,-2.32 2.64,-4.48 1.12,-2.2 1.76,-4.12 0.64,-1.96 0.64,-3.4 0,-1.08 -0.52,-1.92 -0.52,-0.88 -1.72,-0.88 -0.88,0 -1.8,0.52 -0.88,0.48 -1.64,1.2 -0.76,0.68 -1.24,1.44 -0.48,0.76 -0.48,1.28 0,0.6 0.76,0.6 0.68,0 1.88,-0.52 0.92,-0.44 1.6,-0.6 0.68,-0.16 1.12,-0.16 1.16,0 1.16,1.04 0,0.88 -0.68,2.16 -0.64,1.24 -1.64,2.44 -1,1.16 -2.16,2 -1.16,0.84 -2.16,0.84 -0.68,0 -1.12,-0.32 -0.4,-0.32 -0.4,-0.88 0,-0.56 0.56,-1.28 0.56,-0.76 1.96,-1.52 2.36,-1.28 3.44,-2.28 1.12,-1.04 1.12,-1.36 0,-0.16 -0.16,-0.16 -0.44,0 -1.72,0.84 -1.04,0.72 -2.28,1.12 -1.24,0.36 -2.28,0.36 -0.8,0 -1.32,-0.24 -0.48,-0.28 -0.48,-0.84 0,-0.72 0.88,-1.84 0.88,-1.08 1.76,-1.92 0.88,-0.84 1.88,-1.44 1,-0.6 2.16,-0.88 1.16,-0.32 2.56,-0.32 1.16,0.12 2,1.12 0.88,0.96 0.88,2.76 0,1.2 -0.56,2.88 -0.4,1.08 -0.92,2.2 -0.52,1.12 -0.52,1.64 0,0.32 0.28,0.32 0.6,0 1.32,-0.6 0.72,-0.6 1.36,-1.4 0.68,-0.8 1.16,-1.6 0.52,-0.84 0.72,-1.24 1.08,-2.24 1.8,-3.44 0.72,-1.24 1.2,-1.8 0.52,-0.6 0.8,-0.72 0.32,-0.12 0.56,-0.12 1,0 1.84,1.2 0.84,1.2 0.84,3.24 0,0.48 -0.12,1.36 -0.12,0.88 -0.36,1.8 -0.24,0.88 -0.6,1.56 -0.36,0.64 -0.84,0.64 z"
         style="font-family:'Does This Hurt Your Eyes?';-inkscape-font-specification:'Does This Hurt Your Eyes?, Normal'"
         id="path5295" />
      <path
         d="m 94.691445,340.81227 q 1.16,0.76 1.72,0.76 0.52,0 0.6,-0.44 0.12,-0.44 0.12,-0.92 0,-0.36 -0.12,-0.76 -0.08,-0.44 -0.28,-0.8 -0.16,-0.36 -0.48,-0.6 -0.28,-0.24 -0.64,-0.28 -0.36,-0.04 -0.8,-0.04 -0.44,0 -0.88,-0.08 -0.4,-0.08 -0.76,-0.32 -0.36,-0.24 -0.6,-0.76 -0.16,-0.32 -0.16,-0.76 0,-0.6 0.2,-1.36 0.24,-0.76 0.52,-1.56 0.28,-0.8 0.48,-1.64 0.2,-0.88 0.16,-1.68 -0.12,-1.4 -0.64,-2.12 -0.52,-0.72 -1.16,-1.08 -0.24,-0.16 -0.6,-0.28 -0.32,-0.12 -0.84,-0.2 -0.48,-0.08 -1.16,-0.08 -1.24,0 -2,0.28 -0.4,0.12 -0.68,0.28 -0.64,0.36 -1.16,1.08 -0.52,0.72 -0.6,2.12 v 0.32 q 0,0.76 0.2,1.56 0.2,0.8 0.44,1.56 0.28,0.76 0.48,1.48 0.2,0.68 0.2,1.28 0,0.48 -0.16,0.8 -0.24,0.52 -0.6,0.76 -0.36,0.24 -0.8,0.32 -0.4,0.08 -0.84,0.08 -0.44,0 -0.8,0.04 -0.36,0.04 -0.68,0.28 -0.28,0.24 -0.48,0.6 -0.16,0.36 -0.28,0.8 -0.08,0.4 -0.08,0.76 0,0.48 0.08,0.92 0.12,0.44 0.64,0.44 0.56,0 1.72,-0.76 0.8,-0.52 1.44,-0.76 0.68,-0.28 1.12,-0.28 0.56,0 0.56,0.36 0,0.36 -0.68,1 -0.52,0.48 -1.16,1.04 -0.6,0.52 -1.16,1.12 -0.52,0.6 -0.88,1.24 -0.36,0.6 -0.36,1.24 0,0.96 0.72,1.6 0.76,0.6 1.8,1 1.04,0.36 2.12,0.52 1.12,0.16 1.84,0.16 0.72,0 1.8,-0.16 1.12,-0.16 2.16,-0.52 1.04,-0.4 1.76,-1 0.76,-0.64 0.76,-1.6 0,-0.64 -0.36,-1.24 -0.36,-0.64 -0.92,-1.24 -0.52,-0.6 -1.16,-1.12 -0.6,-0.56 -1.12,-1.04 -0.68,-0.64 -0.68,-1 0,-0.36 0.56,-0.36 0.44,0 1.08,0.28 0.68,0.24 1.48,0.76 z m 1.88,-5.52 q 1.08,0 2.04,0.56 0.96,0.56 1.640005,1.44 0.68,0.88 1.08,1.96 0.4,1.04 0.4,2.04 0,1.24 -0.6,1.96 -0.56,0.72 -1.840005,0.72 -0.32,0 -1.08,-0.16 -0.72,-0.2 -1.72,-0.92 -0.64,-0.52 -1,-0.52 -0.24,0 -0.24,0.24 0,0.32 0.48,0.88 0.52,0.52 1.56,1.2 1,0.6 1.44,1.52 0.44,0.88 0.44,1.8 0,0.92 -0.4,1.68 -0.36,0.76 -1.08,1.12 -0.52,0.36 -1.6,0.64 -0.92,0.24 -2.6,0.44 -1.64,0.2 -4.28,0.2 -2.64,0 -4.28,-0.2 -1.64,-0.2 -2.6,-0.44 -1.08,-0.28 -1.6,-0.64 -0.72,-0.36 -1.12,-1.12 -0.4,-0.76 -0.4,-1.68 0,-0.92 0.44,-1.8 0.48,-0.92 1.48,-1.52 1.04,-0.68 1.52,-1.2 0.48,-0.56 0.48,-0.88 0,-0.24 -0.2,-0.24 -0.36,0 -1,0.52 -0.72,0.56 -1.44,0.84 -0.72,0.24 -1.6,0.24 -1.16,0 -1.68,-0.76 -0.52,-0.8 -0.52,-1.92 0,-1 0.4,-2.04 0.4,-1.08 1.08,-1.96 0.68,-0.88 1.64,-1.44 0.96,-0.56 2.04,-0.56 0.52,0 0.92,0.16 0.4,0.16 0.72,0.36 0.32,0.2 0.56,0.36 0.24,0.16 0.44,0.16 0.24,0 0.44,-0.32 0.08,-0.16 0.08,-0.28 0,-0.36 -0.4,-0.84 -0.36,-0.48 -0.88,-0.96 -0.48,-0.52 -1,-1 -0.48,-0.48 -0.76,-0.84 -0.36,-0.48 -0.68,-1.32 -0.32,-0.84 -0.32,-1.84 0,-1.56 0.8,-2.52 0.84,-1 2.08,-1.52 1.24,-0.56 2.68,-0.76 1.48,-0.2 2.72,-0.2 1.2,0 2.64,0.2 1.44,0.2 2.68,0.76 1.24,0.56 2.04,1.52 0.84,0.96 0.84,2.52 0,1 -0.36,1.84 -0.32,0.84 -0.68,1.32 -0.28,0.36 -0.8,0.84 -0.48,0.48 -1,0.96 -0.48,0.48 -0.84,0.96 -0.36,0.48 -0.36,0.84 0,0.2 0.12,0.44 0.16,0.2 0.4,0.2 0.2,0 0.44,-0.16 0.24,-0.16 0.52,-0.36 0.32,-0.2 0.72,-0.36 0.44,-0.16 0.96,-0.16 z m -4.8,2.8 q 0.56,0.32 0.56,0.52 0,0.2 -0.28,0.32 -0.28,0.08 -0.44,0.08 -0.2,0 -0.44,-0.04 -0.24,-0.04 -0.44,-0.04 -0.2,0 -0.36,0.12 -0.12,0.08 -0.12,0.4 0,0.24 0.04,0.4 0.04,0.2 0.04,0.36 0.04,0.12 0.04,0.32 0,0.92 -0.36,1.52 -0.32,0.56 -0.64,0.56 -0.36,0 -0.48,-0.28 -0.08,-0.32 -0.2,-0.76 v -0.16 q 0,-0.32 0.08,-0.8 0.08,-0.48 0.08,-0.88 0,-0.64 -0.32,-0.64 -0.12,0 -0.16,0.04 -0.48,0.16 -0.84,0.16 -0.2,0 -0.4,-0.04 -0.2,-0.08 -0.2,-0.28 0,-0.2 0.24,-0.56 0.24,-0.36 0.96,-0.88 0.48,-0.32 0.64,-1 0.16,-0.72 0.2,-1.4 0.08,-0.72 0.16,-1.24 0.12,-0.52 0.44,-0.52 0.32,0 0.4,0.28 0.12,0.28 0.12,0.72 v 0.96 q 0,0.28 0,0.6 0,0.28 0.04,0.6 0.08,0.68 0.56,1 0.48,0.32 0.76,0.4 0.24,0.08 0.32,0.16 z"
         style="font-family:'Does This Hurt Your Eyes?';-inkscape-font-specification:'Does This Hurt Your Eyes?, Normal'"
         id="path5297" />
      <path
         d="m 70.137031,375.3488 q 0.48,-0.2 0.8,-0.2 0.68,0 1.16,0.48 0.48,0.44 0.48,1.16 0,0.4 -0.24,0.96 -0.2,0.28 -0.52,0.48 -0.24,0.2 -0.68,0.36 -0.4,0.16 -1.04,0.16 -0.32,0 -0.64,-0.04 -0.32,-0.08 -0.72,-0.16 -0.4,-0.12 -0.68,-0.12 -0.48,0 -0.72,0.28 -0.24,0.24 -0.24,0.64 0,0.68 0.56,1.64 0.6,0.92 1.52,1.6 1.32,0.96 2.08,2.32 0.8,1.36 0.8,2.44 0,0.72 -0.4,1.2 -0.4,0.48 -1.24,0.48 -1.12,0 -2.48,-0.52 -1.36,-0.52 -2.52,-1.4 -1.16,-0.92 -1.96,-2.08 -0.76,-1.16 -0.76,-2.44 0,-0.36 0.12,-0.56 0.12,-0.24 0.28,-0.32 0.16,-0.12 0.32,-0.12 0.16,-0.04 0.2,-0.04 0.92,0 1.52,0.52 0.64,0.52 1.08,1.12 0.52,0.76 0.84,1.68 0.28,0.88 0.64,1.44 0.4,0.52 0.8,0.8 0.44,0.28 0.8,0.36 0.4,0.08 0.64,0.08 0.4,0 0.76,-0.12 0.36,-0.16 0.36,-0.64 0,-0.52 -0.48,-1.28 -0.44,-0.8 -1.24,-1.72 -0.64,-0.68 -1.36,-1.28 -0.68,-0.6 -1.24,-1.12 -0.56,-0.56 -0.96,-1.08 -0.36,-0.52 -0.36,-1.08 0,-0.88 0.6,-1.2 0.64,-0.36 1.4,-0.36 1,0 2.08,0.32 0.08,0.04 0.16,0.04 0.08,0 0.16,0.04 0.12,0 0.24,0 0.36,0 0.72,-0.16 0.36,-0.2 0.44,-0.76 0,-0.16 -0.04,-0.32 -0.08,-0.08 -0.24,-0.16 -0.16,-0.12 -0.52,-0.12 -0.48,0 -1.08,0.16 -0.64,0.16 -1.2,0.28 -0.56,0.12 -1.04,0.12 -0.36,0 -0.8,-0.12 -0.4,-0.12 -0.76,-0.36 -0.32,-0.24 -0.56,-0.56 -0.24,-0.36 -0.24,-0.76 0,-0.56 0.28,-1.2 0.28,-0.68 0.64,-1.36 0.36,-0.72 0.64,-1.4 0.28,-0.68 0.28,-1.2 0,-0.36 -0.24,-0.68 -0.2,-0.36 -0.6,-0.36 -0.36,0 -0.72,0.4 -0.32,0.36 -0.6,0.88 -0.28,0.48 -0.52,1 -0.2,0.48 -0.28,0.72 -0.08,0.28 -0.24,0.68 -0.12,0.4 -0.36,0.72 -0.2,0.32 -0.48,0.56 -0.28,0.24 -0.68,0.24 -0.28,0 -0.56,-0.36 -0.24,-0.4 -0.48,-0.96 -0.24,-0.56 -0.48,-1.16 -0.24,-0.6 -0.56,-1.04 0.08,0.68 0.12,1.48 0.08,0.76 0.08,1.6 0,1.16 -0.12,2.2 -0.08,1 -0.24,1.76 -0.12,0.72 -0.36,1.16 -0.2,0.44 -0.44,0.44 -0.24,0 -0.48,-0.44 -0.2,-0.44 -0.36,-1.16 -0.16,-0.76 -0.28,-1.76 -0.08,-1.04 -0.08,-2.2 0,-0.8 0.04,-1.52 0.08,-0.72 0.16,-1.4 -0.28,0.48 -0.52,1.08 -0.24,0.56 -0.48,1.08 -0.24,0.48 -0.48,0.84 -0.24,0.36 -0.52,0.36 -0.4,0 -0.68,-0.24 -0.28,-0.24 -0.48,-0.56 -0.2,-0.32 -0.36,-0.72 -0.12,-0.4 -0.24,-0.68 -0.08,-0.24 -0.28,-0.72 -0.2,-0.52 -0.48,-1 -0.28,-0.52 -0.64,-0.88 -0.36,-0.4 -0.72,-0.4 -0.4,0 -0.64,0.36 -0.2,0.32 -0.2,0.64 0,0.52 0.28,1.2 0.32,0.68 0.64,1.4 0.36,0.68 0.64,1.36 0.32,0.68 0.32,1.24 0,0.4 -0.24,0.76 -0.24,0.32 -0.6,0.56 -0.36,0.24 -0.8,0.36 -0.4,0.12 -0.76,0.12 -0.48,0 -1.04,-0.12 -0.52,-0.12 -1.16,-0.28 -0.6,-0.16 -1.08,-0.16 -0.36,0 -0.52,0.12 -0.16,0.08 -0.24,0.16 -0.08,0.16 -0.08,0.32 0.08,0.56 0.44,0.76 0.4,0.16 0.76,0.16 0.12,0 0.2,0 0.12,-0.04 0.2,-0.04 0.08,0 0.16,-0.04 1.08,-0.32 2.04,-0.32 0.76,0 1.32,0.28 0.56,0.28 0.68,1 0,0.08 0,0.16 0.04,0.04 0.04,0.12 0,0.56 -0.4,1.08 -0.36,0.52 -0.92,1.08 -0.56,0.52 -1.28,1.12 -0.68,0.6 -1.32,1.28 -0.84,0.92 -1.32,1.72 -0.44,0.76 -0.44,1.28 0,0.48 0.36,0.64 0.36,0.12 0.76,0.12 0.24,0 0.6,-0.08 0.4,-0.08 0.8,-0.36 0.44,-0.28 0.84,-0.8 0.4,-0.56 0.64,-1.44 0.32,-0.92 0.84,-1.68 0.44,-0.6 1.08,-1.12 0.64,-0.52 1.52,-0.52 0.04,0 0.2,0.04 0.16,0 0.32,0.12 0.16,0.08 0.28,0.32 0.12,0.2 0.12,0.56 0,1.28 -0.8,2.44 -0.76,1.16 -1.92,2.08 -1.12,0.88 -2.48,1.4 -1.32,0.52 -2.48,0.52 -0.88,0 -1.28,-0.48 -0.36,-0.48 -0.36,-1.2 0,-1.08 0.76,-2.44 0.76,-1.36 2.08,-2.32 0.92,-0.68 1.48,-1.6 0.6,-0.96 0.6,-1.64 0,-0.4 -0.24,-0.64 -0.2,-0.28 -0.72,-0.28 -0.24,0 -0.68,0.12 -0.4,0.08 -0.72,0.16 -0.32,0.04 -0.64,0.04 -0.6,0 -1.04,-0.16 -0.4,-0.16 -0.68,-0.36 -0.32,-0.2 -0.52,-0.48 -0.24,-0.56 -0.24,-0.96 0,-0.72 0.48,-1.16 0.48,-0.48 1.16,-0.48 0.32,0 0.8,0.2 0.56,0.28 1.32,0.68 0.8,0.4 1.44,0.4 0.48,0 0.72,-0.32 0.28,-0.32 0.28,-0.76 0,-1 -1.08,-2.44 -1.04,-1.48 -2.52,-3.44 -0.76,-1 -1.16,-2.16 -0.36,-1.16 -0.36,-2.24 0,-0.72 0.2,-1.44 0.2,-0.76 0.6,-1.32 0.4,-0.56 1,-0.92 0.6,-0.36 1.44,-0.36 0.84,0 1.56,0.52 0.72,0.48 1.24,1.4 0.56,0.88 0.92,2.16 0.4,1.24 0.6,2.72 0.2,1.36 0.44,2.16 0.24,0.8 0.48,1.2 0.24,0.4 0.44,0.52 0.2,0.12 0.32,0.12 0.52,0 0.84,-0.44 0.32,-0.48 0.48,-1.08 0.16,-0.6 0.2,-1.2 0.04,-0.6 0.04,-0.92 0,-1.32 0.28,-2 0.28,-0.72 0.6,-1.04 0.36,-0.36 0.64,-0.4 0.32,-0.08 0.36,-0.08 0.04,0 0.32,0.08 0.28,0.04 0.6,0.4 0.36,0.32 0.64,1.04 0.28,0.68 0.28,2 0,0.32 0.04,0.92 0.04,0.6 0.2,1.2 0.16,0.6 0.48,1.08 0.32,0.44 0.84,0.44 0.12,0 0.32,-0.12 0.24,-0.12 0.48,-0.52 0.24,-0.4 0.48,-1.2 0.24,-0.8 0.4,-2.16 0.2,-1.48 0.56,-2.72 0.4,-1.28 0.92,-2.16 0.56,-0.92 1.28,-1.4 0.72,-0.52 1.56,-0.52 0.84,0 1.44,0.36 0.6,0.36 1,0.96 0.4,0.56 0.6,1.28 0.2,0.72 0.2,1.48 0,1.08 -0.36,2.24 -0.36,1.12 -1.12,2.12 -1.52,1.96 -2.6,3.4 -1.04,1.44 -1.04,2.44 0,0.28 0.12,0.52 0.12,0.32 0.36,0.48 0.24,0.12 0.56,0.12 0.64,0 1.4,-0.4 0.76,-0.4 1.32,-0.68 z"
         style="font-family:'Does This Hurt Your Eyes?';-inkscape-font-specification:'Does This Hurt Your Eyes?, Normal'"
         id="path5299" />
      <path
         d="m 103.41146,367.0288 q 0.4,0 0.52,0.48 0.12,0.48 0.12,0.84 0,0.6 -0.28,1.36 -0.24,0.76 -0.72,1.48 -0.44,0.68 -1.08,1.16 -0.6,0.44 -1.32,0.44 -1.040003,0 -2.000003,-0.92 -0.92,-0.96 -1.64,-2.12 -0.72,-1.2 -1.2,-2.24 -0.44,-1.08 -0.56,-1.32 -0.04,-0.16 -0.36,-0.76 -0.28,-0.6 -0.8,-1.24 -0.48,-0.68 -1.16,-1.2 -0.64,-0.56 -1.44,-0.56 -0.84,0 -1.64,0.64 -0.76,0.6 -1.48,1.64 -0.68,1 -1.28,2.24 -0.56,1.24 -0.96,2.52 -0.4,1.24 -0.64,2.36 -0.24,1.08 -0.24,1.8 0,0.76 0.28,1.28 0.32,0.48 1.08,0.48 0.28,0 0.64,-0.08 0.4,-0.12 1.04,-0.4 1.32,-0.56 2.44,-0.76 1.16,-0.24 1.96,-0.24 0.68,0 0.88,0.2 0.04,0 0.24,0.16 0.24,0.12 0.24,0.44 0,0.44 -0.72,1.2 -0.68,0.76 -2.84,2.12 l -3.32,2.04 q -0.92,0.72 -1.4,1.68 -0.48,0.96 -0.48,1.8 0,0.8 0.48,1.36 0.48,0.52 1.52,0.52 h 0.32 q 1.36,-0.12 2.4,-0.92 l 2.12,-1.56 q 1.68,-1.28 2.68,-1.84 1,-0.56 1.56,-0.56 0.76,0 0.76,0.92 0,0.72 -0.4,1.8 -0.36,1.08 -0.76,1.92 -0.28,0.6 -0.4,0.92 -0.08,0.32 -0.08,0.44 0,0.12 0.08,0.12 0.16,0 0.44,-0.24 0.32,-0.24 0.64,-0.56 0.36,-0.36 0.68,-0.72 0.36,-0.36 0.6,-0.64 0.08,-0.08 0.32,-0.36 0.28,-0.28 0.68,-0.6 0.4,-0.32 0.88,-0.56 0.480003,-0.28 0.960003,-0.28 0.44,0 0.72,0.24 0.28,0.24 0.28,0.8 0,0.76 -0.56,1.72 -0.52,0.92 -1.360003,1.76 -0.84,0.8 -1.84,1.36 -1,0.52 -1.88,0.52 -0.68,0 -1.2,-0.36 -0.48,-0.4 -0.48,-1.28 0,-0.52 0.2,-1.2 0.24,-0.68 0.8,-1.68 0.92,-1.72 0.92,-2.36 0,-0.28 -0.28,-0.28 -0.32,0 -1,0.44 -0.64,0.4 -1.56,1.16 -0.92,0.76 -2.12,1.84 -1.16,1.04 -2.48,2.28 -0.8,0.72 -1.64,1.04 -0.84,0.32 -1.72,0.32 -0.96,0 -1.68,-0.36 -0.72,-0.36 -1.16,-0.96 -0.44,-0.6 -0.68,-1.36 -0.2,-0.8 -0.2,-1.64 0,-1.36 0.52,-2.36 0.56,-1 1.44,-1.72 0.88,-0.76 1.96,-1.32 1.08,-0.56 2.16,-1.04 0.32,-0.16 1.16,-0.56 0.88,-0.44 1.76,-0.96 0.92,-0.52 1.6,-1.04 0.72,-0.52 0.72,-0.8 0,-0.24 -0.44,-0.24 -0.48,0 -1.44,0.32 -0.92,0.32 -2.04,1 -0.88,0.56 -1.92,0.96 -1.04,0.4 -2.08,0.4 -1.84,0 -2.76,-1.24 -0.88,-1.24 -0.96,-3.04 -0.04,-0.84 0.24,-1.84 0.28,-1 0.64,-1.88 0.36,-0.92 0.68,-1.56 0.32,-0.68 0.4,-0.84 1.32,-2.2 2.68,-3.4 1.36,-1.2 2.52,-1.76 1.2,-0.56 2,-0.64 0.84,-0.12 1,-0.12 1.52,0 2.64,0.6 1.16,0.6 2,1.52 0.88,0.92 1.44,2.04 0.6,1.12 1,2.2 0.4,1.08 0.6,1.96 0.24,0.88 0.36,1.28 0.2,0.68 0.400003,0.88 0.2,0.16 0.36,0.16 0.08,0 0.08,0 0.04,-0.04 0.08,-0.04 0,0 0.04,-0.04 0.48,-1.28 0.96,-2.28 0.4,-0.88 0.84,-1.56 0.48,-0.72 0.92,-0.72 z"
         style="font-family:'Does This Hurt Your Eyes?';-inkscape-font-specification:'Does This Hurt Your Eyes?, Normal'"
         id="path5301" />
    </g>
  </g>
</svg>
