<?xml version="1.0" encoding="UTF-8" standalone="no"?>
<!-- Created with Inkscape (http://www.inkscape.org/) -->

<svg
   width="247.53101mm"
   height="60.402mm"
   viewBox="0 0 247.53101 60.402"
   version="1.1"
   id="svg5"
   inkscape:version="1.1.2 (b8e25be833, 2022-02-05)"
   sodipodi:docname="font_back.svg"
   xmlns:inkscape="http://www.inkscape.org/namespaces/inkscape"
   xmlns:sodipodi="http://sodipodi.sourceforge.net/DTD/sodipodi-0.dtd"
   xmlns="http://www.w3.org/2000/svg"
   xmlns:svg="http://www.w3.org/2000/svg">
  <sodipodi:namedview
     id="namedview7"
     pagecolor="#ffffff"
     bordercolor="#666666"
     borderopacity="1.0"
     inkscape:pageshadow="2"
     inkscape:pageopacity="0.0"
     inkscape:pagecheckerboard="true"
     inkscape:document-units="mm"
     showgrid="false"
     inkscape:zoom="1.0097175"
     inkscape:cx="502.61582"
     inkscape:cy="301.56949"
     inkscape:window-width="1920"
     inkscape:window-height="1001"
     inkscape:window-x="-9"
     inkscape:window-y="-9"
     inkscape:window-maximized="1"
     inkscape:current-layer="layer1"
     inkscape:snap-others="false"
     inkscape:snap-page="true"
     inkscape:snap-global="true"
     inkscape:snap-bbox="true"
     inkscape:bbox-nodes="true"
     inkscape:bbox-paths="true"
     inkscape:snap-bbox-midpoints="false"
     inkscape:snap-bbox-edge-midpoints="true"
     height="58.416mm" />
  <defs
     id="defs2">
    <rect
       x="44.456226"
       y="323.6969"
       width="691.84998"
       height="329.25391"
       id="rect2674" />
  </defs>
  <g
     inkscape:label="Layer 1"
     inkscape:groupmode="layer"
     id="layer1">
    <g
       aria-label="back"
       transform="matrix(2.0685576,0,0,2.0685576,-93.285807,-686.62103)"
       id="text2672"
       style="font-size:40px;line-height:1.25;letter-spacing:7.67443px;word-spacing:0px;white-space:pre;shape-inside:url(#rect2674);fill:#ffffff">
      <path
         d="m 52.497031,335.21227 q -0.32,-0.24 -0.8,-0.24 -0.48,0 -0.84,0.24 -0.32,0.2 -0.56,0.56 -0.24,0.36 -0.36,0.8 -0.12,0.4 -0.12,0.8 0,0.2 0,0.36 0.04,0.12 0.08,0.28 l 0.16,1.32 q 0.12,0.6 0.12,1.16 0,0.64 -0.2,1.28 -0.16,0.64 -0.52,1.2 -0.36,0.52 -0.88,0.88 -0.48,0.32 -1.12,0.32 -0.92,0 -1.64,-0.76 -0.72,-0.8 -0.72,-2.12 0,-1.2 0.64,-2.68 0.64,-1.48 1.64,-2.76 1.04,-1.32 2.32,-2.16 1.28,-0.88 2.52,-0.88 1.32,0 2.16,1 0.84,0.96 0.84,2.6 0,0.8 -0.2,1.76 -0.2,0.92 -0.4,1.8 l -0.16,0.56 q -0.4,1.56 -0.76,3.32 -0.32,1.72 -0.32,3.52 0,3.8 1.92,6.48 1.92,2.64 5.64,3.6 0.4,0.08 0.72,0.16 0.36,0.04 0.76,0.04 1.2,0 2.2,-0.56 1,-0.56 1.72,-1.4 0.72,-0.84 1.12,-1.84 0.4,-1.04 0.4,-1.96 0,-1.12 -0.64,-1.88 -0.6,-0.76 -2,-0.76 -1.04,0 -2.48,0.52 -1.4,0.48 -3.32,1.68 -0.52,0.32 -1.04,0.48 -0.48,0.12 -0.92,0.12 -0.72,0 -1.32,-0.28 -0.56,-0.28 -1,-0.72 -0.44,-0.48 -0.68,-1 -0.24,-0.56 -0.24,-1.08 0,-0.92 0.72,-1.68 0.76,-0.76 1.96,-1.08 1.8,-0.44 2.64,-0.76 0.84,-0.32 0.84,-0.44 0,-0.04 -0.16,-0.04 -0.4,0 -1.08,0.2 -0.64,0.16 -1.12,0.16 -0.88,0 -1.44,-0.44 -0.56,-0.44 -0.88,-1.08 -0.32,-0.68 -0.44,-1.44 -0.12,-0.8 -0.12,-1.52 0,-1.64 0.56,-3.2 0.6,-1.56 1.64,-2.76 1.04,-1.2 2.48,-1.92 1.44,-0.76 3.2,-0.76 1.64,0 3,0.64 1.4,0.6 2.44,1.68 1.04,1.04 1.6,2.44 0.6,1.4 0.6,2.96 0,0.88 -0.2,1.84 -0.2,0.92 -0.64,1.72 -0.4,0.8 -1.04,1.32 -0.6,0.52 -1.48,0.52 -0.52,0 -1.08,-0.2 -0.52,-0.2 -0.96,-0.56 -0.44,-0.36 -0.72,-0.8 -0.28,-0.48 -0.28,-1 0,-0.36 0.16,-0.76 0.16,-0.4 0.6,-1.04 0.56,-0.76 0.92,-1.48 0.4,-0.76 0.4,-1.8 0,-0.92 -0.36,-1.64 -0.32,-0.72 -0.92,-1.2 -0.6,-0.48 -1.4,-0.72 -0.8,-0.28 -1.68,-0.28 -1.44,0 -2.48,0.64 -1.04,0.64 -1.72,1.68 -0.64,1.04 -0.96,2.36 -0.28,1.28 -0.28,2.6 0,0.76 0.08,1.44 0.12,0.68 0.28,1.2 0.2,0.52 0.48,0.8 0.32,0.28 0.68,0.24 l 1.24,-0.24 q 0.6,-0.12 1.04,-0.12 0.76,0 0.8,0.48 v 0.12 q 0,0.56 -0.8,1.04 -0.8,0.44 -2.2,0.64 -0.8,0.12 -1.52,0.44 -0.68,0.28 -0.68,1.08 0,0.68 0.52,1.16 0.56,0.48 1.32,0.48 0.64,0 1.92,-0.4 1.28,-0.4 2.6,-1.32 1.12,-0.76 2.4,-1.2 1.28,-0.44 2.44,-0.44 1.96,0 2.76,1.16 0.84,1.12 0.84,2.88 0,1.44 -0.56,3.12 -0.52,1.68 -1.64,3.12 -1.08,1.4 -2.76,2.36 -1.64,0.92 -3.88,0.92 -2.08,0 -3.48,-0.76 -1.36,-0.8 -2.28,-1.92 -0.92,-1.16 -1.44,-2.4 -0.52,-1.28 -0.84,-2.24 l -0.24,-0.68 q -0.32,-1 -0.48,-1.2 -0.08,-0.08 -0.12,-0.08 -0.16,0 -0.28,0.6 -0.12,0.56 -0.32,1.52 -0.16,0.96 -0.44,2.16 -0.28,1.2 -0.76,2.28 -0.48,1.08 -1.24,1.84 -0.76,0.72 -1.92,0.72 -0.68,0 -1.12,-0.28 -0.44,-0.28 -0.72,-0.68 -0.24,-0.44 -0.36,-0.96 -0.08,-0.52 -0.08,-1.04 0,-1.92 1.04,-3.08 1.04,-1.16 2.44,-2 0.68,-0.4 1.04,-0.68 0.36,-0.28 0.68,-0.6 0.32,-0.4 0.56,-0.76 0.24,-0.4 0.4,-0.92 0.2,-0.52 0.32,-1.2 0.16,-0.72 0.32,-1.72 l 0.4,-2.64 q 0,-0.08 0.04,-0.48 0.04,-0.4 0.08,-0.96 0.04,-0.6 0.08,-1.32 0.04,-0.72 0.04,-1.48 0,-1.36 -0.16,-2.48 -0.12,-1.12 -0.56,-1.44 z"
         style="font-family:'Does This Hurt Your Eyes?';-inkscape-font-specification:'Does This Hurt Your Eyes?, Normal'"
         id="path3304" />
      <path
         d="m 95.371497,344.17227 q 0.44,0.28 0.88,0.44 0.44,0.16 0.84,0.16 0.64,0 1.04,-0.36 0.4,-0.4 0.6,-0.96 0.24,-0.6 0.32,-1.24 0.08,-0.68 0.08,-1.24 0,-1.44 -0.48,-2.6 -0.44,-1.2 -1.28,-2.04 -0.84,-0.84 -2.04,-1.28 -1.2,-0.48 -2.68,-0.48 -1.2,0 -2.04,0.32 -0.84,0.28 -1.44,0.76 -0.6,0.44 -1.04,1 -0.4,0.56 -0.76,1.12 -0.88,1.32 -1.48,1.76 -0.56,0.44 -1.44,0.44 l -0.44,-0.04 q -0.76,-0.08 -1.12,-0.6 -0.36,-0.56 -0.36,-1.36 0,-0.88 0.48,-1.88 0.48,-1.04 1.44,-1.92 1,-0.88 2.48,-1.44 1.52,-0.6 3.6,-0.6 l 1.64,0.12 q 2.8,0.32 4.44,1.4 1.68,1.04 2.52,2.36 0.880003,1.32 1.120003,2.64 0.28,1.32 0.28,2.24 0,0.72 -0.08,1.04 -0.24,1.44 -0.760003,2.24 -0.48,0.8 -1,1.2 -0.52,0.36 -0.96,0.44 -0.44,0.04 -0.56,0.04 -0.76,0 -1.4,-0.2 -0.6,-0.24 -1.28,-0.56 l -0.32,-0.16 q -0.88,-0.4 -1.4,-0.52 -0.48,-0.16 -1,-0.24 h -0.8 q -1.32,0 -2.56,0.52 -1.24,0.48 -2.24,1.36 -1,0.88 -1.6,2.08 -0.6,1.2 -0.6,2.64 0,0.96 0.28,2.04 0.32,1.04 0.88,1.92 0.56,0.88 1.36,1.48 0.8,0.56 1.84,0.56 1.28,0 1.76,-0.8 0.48,-0.84 0.48,-1.92 0,-0.56 -0.12,-1.12 -0.08,-0.6 -0.24,-1.16 -0.2,-0.56 -0.36,-1.28 -0.12,-0.76 -0.12,-1.56 0,-1.44 0.68,-2.6 0.68,-1.16 2.04,-1.16 0.6,0 0.92,0.24 0.32,0.2 0.48,0.56 0.16,0.36 0.2,0.8 0.04,0.44 0.04,0.92 v 0.6 q 0,0.76 0.08,1.36 0.12,0.56 0.64,0.64 h 0.08 q 0.24,0 0.56,-0.08 0.36,-0.12 1,-0.44 0.48,-0.24 0.92,-0.4 0.44,-0.16 0.88,-0.16 0.8,0 1.32,0.64 0.560003,0.64 0.560003,1.48 0,0.92 -0.560003,1.96 -0.56,1 -1.16,1.92 l -0.24,0.36 q -0.24,0.36 -0.52,0.92 -0.28,0.52 -0.28,0.84 0,0.32 0.28,0.32 0.16,0 0.36,-0.2 0.2,-0.2 0.4,-0.48 0.44,-0.56 0.68,-0.72 0.24,-0.2 0.44,-0.2 0.44,0 0.560003,0.44 0.12,0.44 0.12,0.8 0,0.4 -0.16,0.92 -0.120003,0.48 -0.440003,0.88 -0.28,0.4 -0.76,0.68 -0.44,0.28 -1.04,0.28 l -0.32,-0.04 q -0.8,-0.08 -1.16,-0.52 -0.36,-0.48 -0.36,-1.16 0,-0.84 0.44,-1.88 0.48,-1.04 1.24,-1.96 0.64,-0.8 0.92,-1.48 0.32,-0.72 0.32,-1.28 0,-0.68 -0.4,-0.96 -0.36,-0.32 -1.04,-0.32 -0.44,0 -0.92,0.08 -0.48,0.08 -0.72,0.16 l -0.52,0.16 q -0.4,0.12 -0.76,0.2 -0.32,0.08 -0.6,0.08 h -0.08 q -0.68,0 -0.88,-0.6 -0.2,-0.6 -0.28,-2.2 -0.08,-1.16 -0.36,-1.6 -0.24,-0.48 -0.6,-0.48 -0.32,0 -0.6,0.32 -0.24,0.32 -0.44,0.8 -0.16,0.44 -0.24,0.92 -0.08,0.48 -0.08,0.8 0,0.4 0.16,1.04 0.16,0.6 0.6,1.28 0.2,0.32 0.44,0.88 0.28,0.56 0.52,1.24 0.24,0.68 0.4,1.44 0.2,0.76 0.2,1.48 0,0.68 -0.2,1.36 -0.2,0.64 -0.68,1.16 -0.44,0.52 -1.24,0.84 -0.76,0.32 -1.92,0.32 h -0.52 l -1.56,-0.12 q -0.16,-0.04 -0.76,-0.12 -0.56,-0.08 -1.36,-0.32 -0.76,-0.28 -1.64,-0.76 -0.84,-0.48 -1.56,-1.24 -0.72,-0.8 -1.2,-1.92 -0.44,-1.16 -0.44,-2.72 0,-2.24 1,-4.12 1,-1.92 2.6,-3.24 1.64,-1.36 3.68,-2.04 2.08,-0.72 4.24,-0.6 l 1,0.08 q 0.32,0.08 1.24,0.32 0.96,0.2 2,0.84 z"
         style="font-family:'Does This Hurt Your Eyes?';-inkscape-font-specification:'Does This Hurt Your Eyes?, Normal'"
         id="path3306" />
      <path
         d="m 132.84591,345.41227 q -0.12,0.24 -0.4,0.64 -0.28,0.4 -0.68,0.8 -0.4,0.36 -0.92,0.64 -0.52,0.28 -1.12,0.28 -0.96,0 -1.6,-0.56 -0.64,-0.6 -0.64,-1.6 0,-0.24 0.04,-0.32 0,-0.08 0,-0.12 0.2,-1.08 0.72,-1.88 0.52,-0.84 1.12,-1.48 0.6,-0.64 1.2,-1.12 0.64,-0.52 1.08,-0.92 0.32,-0.32 0.48,-0.68 0.2,-0.4 0.2,-0.72 0,-0.44 -0.28,-0.72 -0.28,-0.32 -0.84,-0.32 -0.28,0 -0.72,0.12 -0.76,0.2 -1.24,0.52 -0.44,0.32 -0.92,0.84 -0.44,0.48 -1,1.2 -0.52,0.72 -1.44,1.76 -1.08,1.28 -2.12,1.76 -1,0.44 -1.76,0.52 -1.04,0 -1.84,-0.52 -0.8,-0.56 -0.8,-1.76 0,-1.48 0.72,-2.44 0.72,-1 1.8,-1.64 1.08,-0.68 2.36,-1.08 1.28,-0.44 2.36,-0.72 1.08,-0.32 1.8,-0.6 0.72,-0.32 0.72,-0.76 0,-0.36 -0.24,-0.56 -0.24,-0.24 -0.6,-0.36 -0.36,-0.12 -0.72,-0.16 -0.36,-0.08 -0.6,-0.08 -0.88,0 -1.96,0.28 -1.08,0.24 -2.28,0.72 -1.16,0.48 -2.36,1.16 -1.2,0.64 -2.28,1.48 -1.24,0.92 -2.24,2.12 -1,1.2 -1.72,2.6 -0.68,1.36 -1.08,2.88 -0.36,1.48 -0.36,3.04 0,1.72 0.4,3.52 0.44,1.76 1.32,3.2 0.92,1.44 2.32,2.36 1.4,0.92 3.4,0.92 1.08,0 2.2,-0.64 1.16,-0.64 2.12,-1.6 0.96,-0.96 1.6,-2.04 0.68,-1.12 0.8,-2 0.12,-0.96 0.56,-1.48 0.44,-0.56 0.92,-0.8 0.48,-0.24 0.88,-0.28 0.4,-0.08 0.48,-0.08 1.12,0 1.64,0.8 0.52,0.76 0.52,2 0,2.16 -1,3.76 -1,1.6 -2.56,2.68 -1.56,1.04 -3.52,1.6 -1.92,0.52 -3.84,0.52 -3.04,0 -5.2,-1 -2.16,-1.04 -3.56,-2.72 -1.4,-1.68 -2.08,-3.84 -0.64,-2.16 -0.64,-4.44 0,-3.16 1.2,-6.08 1.24,-2.92 3.36,-5.16 2.12,-2.28 4.96,-3.6 2.84,-1.36 6.08,-1.36 1.32,0 2.2,0.28 0.92,0.28 1.48,0.68 0.56,0.36 0.8,0.8 0.24,0.44 0.24,0.76 0,0.36 -0.16,0.6 -0.16,0.2 -0.44,0.4 -0.24,0.2 -0.56,0.4 -0.32,0.2 -0.68,0.44 -0.28,0.24 -0.72,0.52 -0.44,0.28 -0.84,0.6 -0.36,0.32 -0.64,0.64 -0.28,0.28 -0.28,0.52 0,0.16 0.16,0.28 0.08,0.08 0.24,0.08 0.28,0 0.72,-0.2 0.44,-0.2 0.96,-0.48 0.52,-0.32 1.08,-0.6 0.6,-0.32 1.16,-0.48 0.96,-0.32 1.84,-0.32 1.68,0 2.32,0.92 0.64,0.92 0.64,2.48 0,0.52 -0.12,1.24 -0.12,0.72 -0.36,1.48 -0.2,0.76 -0.52,1.44 -0.32,0.64 -0.72,1.04 z"
         style="font-family:'Does This Hurt Your Eyes?';-inkscape-font-specification:'Does This Hurt Your Eyes?, Normal'"
         id="path3308" />
      <path
         d="m 155.20038,338.37227 q -1.48,1 -2.56,2.04 -1.04,1.04 -1.76,2 -0.68,0.96 -1,1.72 -0.32,0.76 -0.32,1.24 0,0.56 0.4,0.56 0.44,0 1.44,-0.88 1.04,-0.88 2.16,-2.04 1.16,-1.2 2.16,-2.4 1,-1.2 1.4,-1.84 0.32,-0.48 0.8,-1 0.52,-0.52 1.12,-0.96 0.64,-0.48 1.32,-0.76 0.72,-0.32 1.44,-0.32 0.68,0 1.24,0.28 0.56,0.28 0.92,0.76 0.4,0.48 0.6,1.12 0.2,0.6 0.2,1.24 0,0.84 -0.36,1.88 -0.32,1.04 -0.92,1.96 -0.6,0.88 -1.44,1.52 -0.84,0.6 -1.8,0.6 -0.24,0 -0.48,-0.04 -0.2,-0.04 -0.36,-0.08 -0.16,-0.04 -0.32,-0.12 -0.36,-0.12 -0.68,-0.44 -0.24,-0.24 -0.44,-0.68 -0.2,-0.44 -0.16,-1.12 0.04,-0.6 0.4,-1.4 0.4,-0.8 0.84,-1.56 0.48,-0.76 0.84,-1.4 0.4,-0.64 0.4,-0.92 0,-0.12 -0.12,-0.16 -0.28,-0.08 -0.8,0.44 -0.48,0.52 -1.08,1.32 -0.56,0.8 -1.2,1.72 -0.64,0.92 -1.24,1.64 -0.56,0.72 -1.52,1.56 -0.92,0.8 -1.84,1.48 -1.04,0.84 -2.2,1.6 0.8,-0.4 1.68,-0.72 0.8,-0.28 1.72,-0.48 0.96,-0.24 1.88,-0.24 0.48,0 1.16,0.2 0.68,0.16 1.32,0.52 0.64,0.32 1.08,0.8 0.44,0.48 0.44,1.04 0,0.8 -0.28,1.2 -0.24,0.36 -0.8,0.64 -0.52,0.24 -1.36,0.52 -0.8,0.24 -1.88,0.76 -1.28,0.6 -1.84,1.52 -0.52,0.88 -0.52,1.84 0,0.6 0.24,1.28 0.24,0.64 0.68,1.2 0.44,0.52 1,0.88 0.6,0.32 1.28,0.32 0.76,0 1.2,-0.64 0.44,-0.68 0.68,-1.56 0.24,-0.92 0.32,-1.84 0.12,-0.92 0.2,-1.48 0.08,-0.6 0.36,-1.12 0.32,-0.56 0.72,-0.96 0.44,-0.44 0.88,-0.68 0.48,-0.24 0.88,-0.24 0.52,0 0.92,0.32 0.4,0.32 0.68,0.76 0.32,0.44 0.48,0.96 0.2,0.52 0.28,0.96 0.04,0.16 0.04,0.64 0,0.88 -0.32,2.2 -0.32,1.32 -1.04,2.56 -0.72,1.24 -1.96,2.12 -1.2,0.88 -3,0.88 -1.48,0 -2.6,-0.44 -1.08,-0.4 -1.8,-1.12 -0.68,-0.72 -1.04,-1.64 -0.32,-0.96 -0.32,-2.04 0,-1.52 0.6,-3 0.56,-1.4 1.48,-2 0.92,-0.64 1.76,-0.96 0.88,-0.32 1.52,-0.6 0.64,-0.28 0.64,-0.92 0,-0.52 -0.24,-0.84 -0.2,-0.32 -0.56,-0.52 -0.36,-0.2 -0.8,-0.28 -0.44,-0.08 -0.88,-0.08 -1.16,0 -2.28,0.32 -1.12,0.28 -1.56,0.48 -0.36,0.16 -0.72,0.24 -0.36,0.08 -0.68,0.44 -0.32,0.32 -0.52,1.04 -0.2,0.72 -0.2,2.12 l 0.16,3.52 q 0,1.08 -0.12,2.04 -0.12,0.96 -0.52,1.68 -0.4,0.72 -1.12,1.16 -0.68,0.4 -1.88,0.4 -0.12,0 -0.52,-0.16 -0.36,-0.16 -0.76,-0.64 -0.4,-0.48 -0.72,-1.28 -0.32,-0.84 -0.32,-2.16 0,-2.6 0.88,-5.12 0.92,-2.56 2.4,-4.88 1.52,-2.32 3.44,-4.24 1.92,-1.96 4,-3.32 1.16,-0.72 2.16,-1.44 1.04,-0.76 1.8,-1.36 0.8,-0.64 1.24,-1.16 0.48,-0.52 0.48,-0.84 0,-0.36 -0.4,-0.36 -0.48,0 -1.4,0.88 -0.92,0.88 -2.16,2.04 -1.2,1.16 -2.68,2.28 -1.48,1.12 -3.08,1.6 -0.96,0.28 -1.84,0.28 -1,0 -1.76,-0.36 -0.76,-0.36 -1.28,-0.96 -0.52,-0.6 -0.8,-1.36 -0.24,-0.76 -0.24,-1.56 0,-0.72 0.24,-1.4 0.28,-0.72 0.72,-1.24 0.48,-0.56 1.12,-0.88 0.64,-0.32 1.44,-0.32 0.48,0 0.92,0.16 0.44,0.16 0.76,0.56 0.48,0.56 0.84,1.04 0.4,0.48 0.76,0.84 0.4,0.36 0.84,0.56 0.44,0.2 1.04,0.2 0.16,0 0.32,0 0.2,-0.04 0.4,-0.08 0.8,-0.12 1.6,-0.64 0.8,-0.56 1.56,-1.12 0.76,-0.6 1.44,-1.08 0.72,-0.48 1.32,-0.48 0.4,0 0.8,0.32 0.4,0.28 0.4,0.72 0,0.68 -0.84,1.6 -0.84,0.88 -1.88,1.68 -1.24,0.96 -2.76,1.96 z"
         style="font-family:'Does This Hurt Your Eyes?';-inkscape-font-specification:'Does This Hurt Your Eyes?, Normal'"
         id="path3310" />
    </g>
  </g>
</svg>
